202 top_docs.202 Belize Caribbean Central America 
202 top_docs.202 Basin 
202 top_docs.202 Chiquibul Peten 
202 top_docs.202 Guatemala 
202 top_docs.202 City UK American 
202 top_docs.202 Belizean 
205 top_docs.205 62 one 85 
206 top_docs.206 Two 
206 top_docs.206 hours minutes 25,000 
206 top_docs.206 1 2 
208 top_docs.208 Kashmir Pakistan Jammu 
208 top_docs.208 Srinagar Kashmiri 
208 top_docs.208 Indian 
208 top_docs.208 Jitendra Narain Saxena Mohammad A. Nomani 
208 top_docs.208 Dal Lake 
208 top_docs.208 Pakistani 
208 top_docs.208 Hitendra 
208 top_docs.208 Afzal 
208 top_docs.208 Amnesty International 
209 top_docs.209 Johan Vaaler Langanker 
210 top_docs.210 140 150 one four 
210 top_docs.210 three 1,100 two 
210 top_docs.210 1,000 1,158 days hour 
210 top_docs.210 120 
210 top_docs.210 months 
210 top_docs.210 357 Three minute 17 five 
212 top_docs.212 Mr. Fender Thomas Edison Peter Schuelzky 
212 top_docs.212 Beefheart Zappa 
212 top_docs.212 Verlaine 
212 top_docs.212 Fleck Roy Wooten 
212 top_docs.212 Stratocaster Dick Dale 
212 top_docs.212 Clarence Leo Robert Johnson Elvis Presley Little Richard 
212 top_docs.212 Segovia Van Halen Paul Fred Waring 
212 top_docs.212 Howard Levy 
213 top_docs.213 David Withrow National Marine Mammal Laboratory 
213 top_docs.213 Arnoldi Kenau Shamu 
213 top_docs.213 Sharnel Jackson Humphrey 
213 top_docs.213 Pavilion Messinger Anore 
214 top_docs.214 one 13 60 20 12 
214 top_docs.214 two 
215 top_docs.215 Deng Xiaoping 
215 top_docs.215 Rajiv Gandhi 
215 top_docs.215 Yang Shangkun Zhao Ziyang 
215 top_docs.215 Li Mikhail Gorbachev 
215 top_docs.215 Jawalharlal Nehru 
215 top_docs.215 Mao Tse 
219 top_docs.219 years two 
219 top_docs.219 3,200 591 2,000 
219 top_docs.219 months 
219 top_docs.219 159 9,900 
219 top_docs.219 1 
219 top_docs.219 818 million 
219 top_docs.219 3.3 eight 
219 top_docs.219 six 10 
220 top_docs.220 Paul Keating Khamtai Siphandon H.E. 
220 top_docs.220 Vo Van Kiet 
221 top_docs.221 Ralph David Abernathy Martin Luther King Jr. 
221 top_docs.221 Sen. Robert F. Kennedy 
221 top_docs.221 M. Kerry 
221 top_docs.221 III 
222 top_docs.222 Anubis Warpus 
222 top_docs.222 Jacek Lentz Brian Friedman Dr. Martens 
222 top_docs.222 Helen Field Tom Cairns 
222 top_docs.222 Homo sapiens 
222 top_docs.222 Dennis Campi 
222 top_docs.222 Michael Chance 
224 top_docs.224 Rezunkov V.S. Sirazetdinov A.V. Charukhchev D.L. 
224 top_docs.224 LAS 
224 top_docs.224 Mandelshtam Brillouin 
224 top_docs.224 Compaq Hewlett U.S. Germany Houston 
224 top_docs.224 St. Peterburg OPTICHESKIY ZHURNAL Yu A. 
224 top_docs.224 Starikov Scientific Research Institute of Comprehensive Optoelectronic Devices and Systems Testing State Optics S.I. 
225 top_docs.225 Diamantis Diamantides 
225 top_docs.225 Metzger 
226 top_docs.226 Danube 
226 top_docs.226 Slovak Republic Bratislava 
226 top_docs.226 Budapest 
226 top_docs.226 Czechoslovakia 
226 top_docs.226 Constanta Moldovan 
226 top_docs.226 Moldova 
226 top_docs.226 Rye Island Slovakia 
227 top_docs.227 UK Tullamore Dew 
228 top_docs.228 INXS Atlantic Tiffany MCA 
228 top_docs.228 Michael Jackson 
228 top_docs.228 George Columbia 
228 top_docs.228 Bobby Brown 
228 top_docs.228 Whitney Houston Arista Earth Belinda Carlisle Whitesnake Geffen 
230 top_docs.230 1944 
230 top_docs.230 Today Aug. 24 , A.D. 79 
230 top_docs.230 Sunday Saturday 
230 top_docs.230 Wednesday the 237th day of 1988 
230 top_docs.230 fall 
231 top_docs.231 Marshal Petain Mitterrand de Gaulle Vichy 
231 top_docs.231 Mitterand 
231 top_docs.231 Francois 
231 top_docs.231 Papon Valery Giscard Robert Paxton 
231 top_docs.231 Serge Klarsfeld Bousquet 
232 top_docs.232 Ferguson Thomson 
232 top_docs.232 Eliot Sizowitch Charles Francis Jenkins 
232 top_docs.232 Bruch 
232 top_docs.232 Walter 
232 top_docs.232 Takayanagi Vladimir K. Zworykin 
232 top_docs.232 Edison Wright Goodyear Rudolf Diesel Colton Carl Djerassi Parker William D. Coolidge Philo T. Farnsworth 
232 top_docs.232 An Wang 
233 top_docs.233 Roberts 
233 top_docs.233 Tim McClure 
233 top_docs.233 Russell Mack 
233 top_docs.233 Biboso 
234 top_docs.234 Roberts 
234 top_docs.234 Tim McClure 
234 top_docs.234 Couch 
234 top_docs.234 Gordeuk Don Richardson Gustave Whitehead Wright 
235 top_docs.235 four One 
235 top_docs.235 9 17 
235 top_docs.235 13 three 
235 top_docs.235 11 
235 top_docs.235 two 
236 top_docs.236 Coronado 
236 top_docs.236 Donna Lukenbill 
236 top_docs.236 JACK A. VAUGHAN 
236 top_docs.236 Smith Homer Bludau 
236 top_docs.236 Mt. Miguel Derek Wastilia Paul Carter 
236 top_docs.236 Don Blakeslee Betty Romero 
236 top_docs.236 Jesse MacNeil Wastila Richie Greaser 
239 top_docs.239 Barbara Jordan Ann Richards 
239 top_docs.239 Bentsen 
239 top_docs.239 Lloyd Ms. 
239 top_docs.239 Kari Larsen 
239 top_docs.239 Richard Nixon 
239 top_docs.239 Sen. Thomas Daschle 
240 top_docs.240 1,500 2,200 
241 top_docs.241 Cuban Caldera South American Cuba 
241 top_docs.241 U.S. 
241 top_docs.241 Liberator Simon Bolivar Miraflores 
243 top_docs.243 Hawaii Kawaiahao Church Honolulu 
243 top_docs.243 mankind 
243 top_docs.243 Chicago 
244 top_docs.244 Darryl 
244 top_docs.244 Costescu 
244 top_docs.244 Abner Doubleday 
244 top_docs.244 Mr. 
244 top_docs.244 Clark Kenesaw Mountain Landis 
247 top_docs.247 George Pickett 
247 top_docs.247 Peter Kostmayer 
247 top_docs.247 Griff King 
249 top_docs.249 West Bank Queens Nobles 
249 top_docs.249 Beverly Hills Capistrano Valley 
250 top_docs.250 Manhattan 
250 top_docs.250 United States 
251 top_docs.251 years 
251 top_docs.251 7.5 million three one 
253 top_docs.253 William Shakespeare John Milton Wordsworth Charles Dickens Thomas Hardy Jane Austen T.S. Eliot Emily Anne 
253 top_docs.253 Vladimir Nabokov Lolita Keats Samuel T. Coleridge Lord Byron Alfred Tennyson W.H. 
253 top_docs.253 Auden Philip Larkin Baudelaire Omar Khayyam 
253 top_docs.253 Shelley Turner Blake 
253 top_docs.253 Dorothy 
254 top_docs.254 Dynamite Blue Bird Redwood City California 
254 top_docs.254 Susanna Farley West Coast 
254 top_docs.254 Deukmejian Golden State 
254 top_docs.254 Don Steffensen Lusk Co. Irvine Calif. 
254 top_docs.254 Legislature 
254 top_docs.254 Cos. Baldwin Santa Margarita Sacramento Washington 
254 top_docs.254 Ms. Barbara Gary Hart 
254 top_docs.254 Supreme Court 
254 top_docs.254 Orange Riverside Los Angeles U.S. 
256 top_docs.256 Chephren 
256 top_docs.256 Mona Lisa 
258 top_docs.258 New Englanders England 
258 top_docs.258 Maine 
258 top_docs.258 York Aquarium Caribbean 
258 top_docs.258 California San Diego 
258 top_docs.258 U.S. 
258 top_docs.258 Southern 
260 top_docs.260 One 
260 top_docs.260 one 
263 top_docs.263 today Tuesday 95 years ago 
263 top_docs.263 1895 
263 top_docs.263 1974 
269 top_docs.269 Pablo Picasso 
270 top_docs.270 Orinoco 
270 top_docs.270 Latin America 
270 top_docs.270 Belt 
271 top_docs.271 16 
271 top_docs.271 18 21 17 
271 top_docs.271 14 
271 top_docs.271 one two three 2 
272 top_docs.272 Maralinga 
272 top_docs.272 Botany Bay European 
272 top_docs.272 Australia 
273 top_docs.273 Nixon Eisenhower Kennedy 
273 top_docs.273 Dwight Hubert Humphrey George Wallace 
273 top_docs.273 Washington Ronald Reagan Spiro Agnew Richard 
273 top_docs.273 Sadat 
273 top_docs.273 Mr. Shimizu Suzuki Yoshi Fujii 
274 top_docs.274 Bruce Willis 
274 top_docs.274 Spear 
274 top_docs.274 Alfred Butts 
274 top_docs.274 Peck Mitchum 
276 top_docs.276 three 
276 top_docs.276 one 
281 top_docs.281 1984 
281 top_docs.281 today 
281 top_docs.281 now 
281 top_docs.281 this year 
286 top_docs.286 Pennsylvania Graham Toledo Ohio Hafey Bo Al Zale Los Angeles 
286 top_docs.286 Ave. Washington 
286 top_docs.286 White House Joseph Hooker Commerce Department Bromo Seltzer 
287 top_docs.287 Desmond Tutu 
287 top_docs.287 Reagan 
287 top_docs.287 Robert Wolff 
287 top_docs.287 P.W. Botha 
287 top_docs.287 Trevor 
288 top_docs.288 one 427 
288 top_docs.288 190 911 
288 top_docs.288 328 
288 top_docs.288 1 month 12,000 
288 top_docs.288 400 16 
290 top_docs.290 1979 
290 top_docs.290 Sept. 21 
290 top_docs.290 June 1 Nov. 30 
290 top_docs.290 Friday 
290 top_docs.290 1989 
290 top_docs.290 Sunday 
290 top_docs.290 1956 
292 top_docs.292 three 
292 top_docs.292 two 
292 top_docs.292 month 70 
292 top_docs.292 four 868.8 634.2 months 
292 top_docs.292 63.8 507.3 32.9 
292 top_docs.292 2.2 bn 1.1 
293 top_docs.293 James Higashida 
293 top_docs.293 Bruce Butts 
293 top_docs.293 Ettore DiVito 
293 top_docs.293 David Callies 
293 top_docs.293 Mark Vavra Hartvigsen 
294 top_docs.294 Mr. Walton 
294 top_docs.294 Elizabeth Beatrix 
294 top_docs.294 Sam Moore James Goldsmith 
294 top_docs.294 II 
294 top_docs.294 Sophie Mirman 
294 top_docs.294 Leslie Wexner 
295 top_docs.295 70 eight 
295 top_docs.295 year 
295 top_docs.295 one Two 66 
296 top_docs.296 nine 
296 top_docs.296 one 
296 top_docs.296 million 99 years 
296 top_docs.296 41 
296 top_docs.296 13 16 
296 top_docs.296 days 
298 top_docs.298 Hagedorn Sacramento Tree Foundation California Oak 
298 top_docs.298 State Police Dennis Michael Hall Mission Service San Clemente South County Municipal Court Laguna Niguel Orange 
298 top_docs.298 Aaron Tassin 
299 top_docs.299 30 
299 top_docs.299 12 two 
300 top_docs.300 United States 
300 top_docs.300 Heath 
300 top_docs.300 Scripps Clinic and Research Foundation La Jolla Calif. 
300 top_docs.300 Hodgkins 
301 top_docs.301 Bud Carson 
301 top_docs.301 Dan Reeves 
301 top_docs.301 Art Modell 
301 top_docs.301 Jerry Van Dyke Luther Dam 
301 top_docs.301 Seifert 
301 top_docs.301 Moon Singletary Taylor SHOFNER Jim Shofner 
301 top_docs.301 Robert A. Iger Michael R. White 
301 top_docs.301 Dave Adolph 
303 top_docs.303 Simawe 
303 top_docs.303 Viking Rushdie Mohammed 
303 top_docs.303 Marianne Wiggins 
303 top_docs.303 Khomeini 
304 top_docs.304 Will County 
304 top_docs.304 Chicago 
304 top_docs.304 Lemont Oak Lawn 
304 top_docs.304 Plainfield 
305 top_docs.305 Cyprus Thompson Creek Idaho Tonopah Nevada 
305 top_docs.305 PSZ 
305 top_docs.305 Amax Colorado Henderson 
305 top_docs.305 CYPRUS Denver 
305 top_docs.305 Sierrita Bagdad Arizona 
305 top_docs.305 Unocal R. Gene Dewey Molycorp 
305 top_docs.305 Leadville AMAX 
306 top_docs.306 China Chinese 
307 top_docs.307 Peter Weir 
307 top_docs.307 Depardieu 
307 top_docs.307 Bruce Joel Rubin Woody Allen Alice Whit Stillman 
308 top_docs.308 2,130 493 100 13 .340 
309 top_docs.309 Bill Cody 
309 top_docs.309 Paul Fees Buffalo 
309 top_docs.309 Mr. Williams Comstock 
309 top_docs.309 Thomas B. Morrison 
310 top_docs.310 River Kwai 
310 top_docs.310 Thai 
310 top_docs.310 Thailand 
310 top_docs.310 Venice 
312 top_docs.312 Frederick Law Olmsted Calvert Vaux 
312 top_docs.312 Robert Stern 
312 top_docs.312 Victor Steinbrueck 
314 top_docs.314 Cooper Alice 
314 top_docs.314 Sidney 
314 top_docs.314 Mr. 
314 top_docs.314 Salt Lake City 
316 top_docs.316 South China Southeast Asian Sumatran Javan Bali 
316 top_docs.316 India Indian 
317 top_docs.317 Guam 
317 top_docs.317 American 
317 top_docs.317 Agana U.S. 
317 top_docs.317 New York 
320 top_docs.320 Romania Netherlands Europe Dutch Rhine Main Danube 
320 top_docs.320 Germany Rotterdam Constanta 
320 top_docs.320 Otopeni Airport Bucharest 
320 top_docs.320 ROMPRES Cluj Napoca North West of Transylvania 
321 top_docs.321 currently July 1986 Friday 
321 top_docs.321 last summer 1992 March 1991 recently 
321 top_docs.321 once 
321 top_docs.321 year 
321 top_docs.321 101 years ago 
322 top_docs.322 John Cabot Henry VIII 
322 top_docs.322 Beale 
322 top_docs.322 Margaret Brent 
323 top_docs.323 Morton 
323 top_docs.323 Elizabeth Beatrix 
323 top_docs.323 II 
323 top_docs.323 Mr John Major 
323 top_docs.323 Sultan 
324 top_docs.324 California 
324 top_docs.324 First Capital Insurance Department 
324 top_docs.324 Life Co. Holdings 
324 top_docs.324 New Jersey RepublicVanguard Mr. Garamendi 
324 top_docs.324 Shearson Lehman 
324 top_docs.324 Executive of York 
324 top_docs.324 San Francisco 
325 top_docs.325 Defense Ministry Britain Argentina Madrid 
325 top_docs.325 Venezuela India Buenos Aires Patagonia 
325 top_docs.325 Ian Stewart 
325 top_docs.325 IMF 
325 top_docs.325 Mr Camdessus Peru 
325 top_docs.325 European Economic Community 
325 top_docs.325 El Cronista Comercial Washington 
327 top_docs.327 four months earlier 
329 top_docs.329 147 million 86.7 31.9 31.2 21.4 
329 top_docs.329 7.7 one 
329 top_docs.329 14.5 
329 top_docs.329 23 30 
330 top_docs.330 1960 Oct. 6 Monday 10 5 
330 top_docs.330 fall 
332 top_docs.332 four 
332 top_docs.332 months 
332 top_docs.332 six two 
332 top_docs.332 250 eight 
333 top_docs.333 Soviet Union U.S. Aviation Week and Space Technology American NASA 
333 top_docs.333 Marshall Alabama Rocket Center 
333 top_docs.333 Alexander A. Maksimov Defense Ministry 
333 top_docs.333 National Aeronautics Administration 
333 top_docs.333 McCartney Hilmers 
333 top_docs.333 Vladium Shatalov Energia 
334 top_docs.334 4 
334 top_docs.334 two 
334 top_docs.334 five 
334 top_docs.334 dozen one 
334 top_docs.334 1 
334 top_docs.334 years 
334 top_docs.334 3 2 
335 top_docs.335 California North America 
335 top_docs.335 Molloko Nojoqui 
335 top_docs.335 Hanscom 
335 top_docs.335 San Diego Wild Animal Park Los Angeles 
335 top_docs.335 captivity 
336 top_docs.336 now 
336 top_docs.336 Currently 
336 top_docs.336 once 
338 top_docs.338 Mikan Anderson 
338 top_docs.338 James Naismith 
338 top_docs.338 Morrison 
338 top_docs.338 Brooslin Walter Brown 
340 top_docs.340 Zebulon Pike 
340 top_docs.340 Marianne Moore 
340 top_docs.340 Dom Pedro II 
340 top_docs.340 Edwin James 
340 top_docs.340 Roosevelt 
341 top_docs.341 5 
341 top_docs.341 two 
341 top_docs.341 4.5 150 
342 top_docs.342 Air Force 
342 top_docs.342 Tinker Base Oklahoma 
342 top_docs.342 England 
345 top_docs.345 14 85 
345 top_docs.345 4,000 Six 12 
345 top_docs.345 350,000 480,000 
345 top_docs.345 two one 
345 top_docs.345 nine 
345 top_docs.345 years 
345 top_docs.345 Seven 
345 top_docs.345 10 
345 top_docs.345 18 5 4 3 2 1 
346 top_docs.346 Langston Hughes 
346 top_docs.346 Arnold Rampersad 
346 top_docs.346 Horne 
346 top_docs.346 Julien 
346 top_docs.346 Fallon 
348 top_docs.348 Pei 
348 top_docs.348 Imhotep Pharaoh Zozer Ramses 
348 top_docs.348 Philippe Auguste 
348 top_docs.348 Michael Saxton 
348 top_docs.348 Tutankhamun 
348 top_docs.348 Sidney Shlenker 
349 top_docs.349 Mr. Follett 
349 top_docs.349 Sam Brown John Harvey Jones Harper Collins Britain 
349 top_docs.349 Caney Bug Book & Bottle and Beach Bucket Workman B. Kliban 
349 top_docs.349 Kremlin Tom Clancy CIA Soviet Union New York Times Brief History of Time Stephen W. Hawking 
349 top_docs.349 Scarlett Alexandra Ripley Warner 
349 top_docs.349 American Booksellers Association ABBY ABA 
349 top_docs.349 Ms. Neiman 
349 top_docs.349 Books Literary Guild Bertelsmann AG 
350 top_docs.350 eight 
350 top_docs.350 700 1,116 
350 top_docs.350 one 72 
350 top_docs.350 27 
351 top_docs.351 Charles Lindbeargh Lindbergh 
351 top_docs.351 Berg 
351 top_docs.351 Ben Newman Anderson Abruzzo 
351 top_docs.351 Jerry Ostermiller 
351 top_docs.351 A. Scott Anne Morrow Mrs. James W. Lloyd 
351 top_docs.351 Mr. O'Hare Hauptmann Bruno Richard 
354 top_docs.354 Steinernema USDA Jan J. Jackson 
354 top_docs.354 Agriculture Department 
354 top_docs.354 Albert Einstein College of Medicine 
354 top_docs.354 Robert Milch Igene Biotechnology Inc. Columbia Md. 
355 top_docs.355 Home Office Ford 
355 top_docs.355 Audi 
355 top_docs.355 Jaguar Mr Tom Walkinshaw 
356 top_docs.356 West Coast 
358 top_docs.358 Butch Kruger Orange Free State Ben de Wet Bloemfontein Zoo Reuters 
358 top_docs.358 Green Bay Packers Pittsburgh Pirates 
358 top_docs.358 Meerkats United David Attenborough 
358 top_docs.358 The Great Picture Trail National Gallery Neil MacGregor Velasquez Manet Folies Bergere 
358 top_docs.358 Simba Disney 
358 top_docs.358 Mina Tannenbaum 
359 top_docs.359 Melbourne Flemington Churchill Downs Louisville Kentucky 
359 top_docs.359 America Eastside 
359 top_docs.359 U.S. Australia 
359 top_docs.359 Brisbane Adelaide 
359 top_docs.359 Miami Vienna Bangkok Hong Kong Sydney 
359 top_docs.359 Puerto Rico Manchester England Belgrade Yugoslavia Atlanta Athens Toronto Victoria 
359 top_docs.359 Montreal Seattle Tacoma 
359 top_docs.359 Indonesia 
362 top_docs.362 Ouedraogo Ouagadougou Sahelian Burkina Faso Jean Baptiste Boukary Lingani 
362 top_docs.362 Harrison Diakpo Alfred Suomie Nimba Taylor Ivory Coast 
362 top_docs.362 Tripoli Libya Libyan Felix Houphouet Boigny 
362 top_docs.362 News Research Commentaries Group Ali Akbar Velayati African Guinea Ndjamena Chadian 
362 top_docs.362 Blaise Compaore Bamako 
362 top_docs.362 Chad Islamic Republic of Iran 
362 top_docs.362 Abidjan Clement 
362 top_docs.362 CFA Dakar IMF Michel Camdessus Roussin 
363 top_docs.363 Manigat Santo Domingo Dominican Republic Haiti Caribbean Hispaniola 
363 top_docs.363 Radio Inter 
363 top_docs.363 Petit Goave Port Petionville 
363 top_docs.363 Tele Martissant 
363 top_docs.363 Duvalier Ely Danti Le Borgne 
363 top_docs.363 AP Gerard LaTortue Puerto Rico Department of State 
363 top_docs.363 UN Mr Aristide US 
363 top_docs.363 au Prince 
363 top_docs.363 Avril Nilo Chailes 
364 top_docs.364 years 3.5 million 1.1 12.4 6.4 4.6 660,000 Eleven 
365 top_docs.365 3.2 million 15 
365 top_docs.365 two 
365 top_docs.365 one Four 100,000 375 1,000 five 
365 top_docs.365 year 1.6 14.7 
365 top_docs.365 2 
366 top_docs.366 Daniel Pollack Ms. Voigt 
368 top_docs.368 Trinidad Libya and Tobago Venezuela Britain 
368 top_docs.368 India 
368 top_docs.368 Washington Miami 
368 top_docs.368 United States U.S. 
369 top_docs.369 Greenland Alaska Canada Denmark 
370 top_docs.370 Pap United States 
370 top_docs.370 Friend 
370 top_docs.370 Ray White Howard Hughes Medical Institute University of Utah Salt Lake City 
370 top_docs.370 US west Prof Gordon McVie CRC 
370 top_docs.370 Cancer Research Campaign south Dr Isabel Silva Anthony Swerdlow London School Hygiene and Tropical Medicine 
370 top_docs.370 England Wales Clive Cookson 
370 top_docs.370 Skolnick American Association Advancement Science 
370 top_docs.370 India Dr. Kohli 
372 top_docs.372 1911 yesterday Sunday 
372 top_docs.372 1986 
372 top_docs.372 November 1988 a year later 
372 top_docs.372 79 years earlier Monday 
372 top_docs.372 ago 
373 top_docs.373 Botswana Kalahari Zimbabwe Zambia 
373 top_docs.373 Desert Iraq 
373 top_docs.373 Maun 
373 top_docs.373 Swaziland Africa Angola Mozambique 
373 top_docs.373 Swakopmund Rehoboth 
373 top_docs.373 Western South 
374 top_docs.374 Henderson VA Congress Derwinski 
374 top_docs.374 Zumwalt Hodgkin 
374 top_docs.374 Agent Orange Task Force American Legion Vietnam Veterans of America National Legal Services Program Sen. John Kerry D Mass. Senate 
378 top_docs.378 Kim Akihito 
378 top_docs.378 Zhu Rongji Xu Dungxin 
378 top_docs.378 Hosokawa Jiang 
378 top_docs.378 Roh 
378 top_docs.378 Bush Hirohito Noboru Takeshita Sean Walsh 
380 top_docs.380 United Nations Angola Brazil Cape Verde Guinea Bissau Mozambique Portugal Sao Tome Principe Spanish 
380 top_docs.380 Joao de Deus Pinheiro Paris 
380 top_docs.380 O Diabo 
380 top_docs.380 Mozambican Portuguese 
380 top_docs.380 African 
381 top_docs.381 Roosevelt William McKinley 
381 top_docs.381 Theodore 
381 top_docs.381 Henry Harrison John Tyler James Knox Polk Andrew Johnson Rutherford B. Hayes Grover Cleveland 
381 top_docs.381 Alton Parker Franklin D. Herbert Hoover 
381 top_docs.381 Jace Alexander Lee Harvey Oswald Victor Garber Wilkes Booth Debra Monk Sara Jane Moore Greg Germann Hinckley Annie Golden Lynette Squeaky Fromme Terrence Mann Leon Czolgosz 
381 top_docs.381 Michael Starobin 
382 top_docs.382 current 
382 top_docs.382 20 February 
382 top_docs.382 three days ago six months later 
382 top_docs.382 now 
384 top_docs.384 Mathews 
384 top_docs.384 Glazer 
384 top_docs.384 Kennedy Nixon 
384 top_docs.384 Van Zelfden 
384 top_docs.384 Harold W. Schaefer 
385 top_docs.385 Rift Valley Serengeti Plain of Tanzania 
387 top_docs.387 Legislature Bob Gilbert Montana 
387 top_docs.387 Grady 
387 top_docs.387 Burns Melcher 
387 top_docs.387 Baucus Kolstad GOP Bruce Vorhauer Sen. Bill Farrell John Domenech 
387 top_docs.387 Frank Morrison Jr. Supreme Court Nebraska 
387 top_docs.387 Judge Ted Schwinden Stan Stephens Cal Winslow Jim Waltermire San Diego Maureen O'Connor 
387 top_docs.387 Senate U.S. Yellowstone County 
389 top_docs.389 Chester A. Arthur James Garfield Ann Bennett Lockwood 
389 top_docs.389 Kim Yong sam 
389 top_docs.389 Sagdeev Mikhail S. Gorbachev 
389 top_docs.389 Sakong Il Fred Bergsten 
390 top_docs.390 West Coast 
390 top_docs.390 European Nagano 
391 top_docs.391 Weaver 
391 top_docs.391 Allen Jones Romain de Tirtoff Paul Wunderlich Olympia Edouard Manet 
391 top_docs.391 Rolla Gervex 
391 top_docs.391 Victorine Meurent 
391 top_docs.391 Eunice Lipton 
392 top_docs.392 Childress 
392 top_docs.392 Davis 
392 top_docs.392 Michael San Roman 
392 top_docs.392 Laurie Woolery 
392 top_docs.392 Conboy 
392 top_docs.392 Venus Ehecatl Quetzalcoatl Xochiquetzal 
395 top_docs.395 CHRISTIN 
395 top_docs.395 Pavlogradsky Chemical Factory Tass Russian 
395 top_docs.395 Sanwa Osaka Okayama Takamatsu 
395 top_docs.395 Red Army 
397 top_docs.397 Thursday 1961 
397 top_docs.397 Late 
397 top_docs.397 200 years ago 1963 
397 top_docs.397 1788 to 1791 
397 top_docs.397 nearly three decades the 18th century once 
397 top_docs.397 Friday 
397 top_docs.397 Nov. 9 
397 top_docs.397 today 28 
399 top_docs.399 Paris U.S. Bank of England London 
399 top_docs.399 Britain John J. McCarthy Irving Trust Co. New York Federal Reserve 
399 top_docs.399 Fed Bundesbank Japan Larry Ryan European American Mr. 
